, Score,cropDataLength,datasetName,seed,lengthStep,lengths,mdlAbandonCriterion,mdlBits,threshAlgo,f1_025,f1_05,intersectSz,iou,numMatches_025,numMatches_05,numReported_025,numReported_05,numTrue_025,numTrue_05,precision_025,precision_05,recall_025,recall_05,reportedFrac,reportedSize,std_iou,time,truthFrac,truthSize,unionSz
0,0.0,4000,randwalk,6,1,"[140 141 142 143 144 145 146 147 148 149 150 151 152 153 154 155 156 157
 158 159]",allNegative,6,mdl,0.0,0.0,0.0,0.0,0,0,11,11,2,2,0.0,0.0,0.0,0.0,0.0,1606.0,0.0,3191.510132,0.0,1.0,1607.0
