, Score,cropDataLength,datasetName,seed,Lmax,Lmin,detrend,ignoreFlat,includeLocalSlope,f1_025,f1_05,intersectSz,iou,numMatches_025,numMatches_05,numReported_025,numReported_05,numTrue_025,numTrue_05,precision_025,precision_05,recall_025,recall_05,reportedFrac,reportedSize,std_iou,time,truthFrac,truthSize,unionSz,iter
0,0.0,500,dishwasher,2,149,100,True,True,True,0.0,0.0,0.0,0.0,0,0,2,2,233,233,0.0,0.0,0.0,0.0,0.0,200.0,0.0,2.0399499999999975,0.0,39080.0,39280.0,2.0
1,0.0,1000,dishwasher,2,149,100,True,True,True,0.0,0.0,0.0,0.0,0,0,3,3,233,233,0.0,0.0,0.0,0.0,0.0,447.0,0.0,6.172761000000008,0.0,39080.0,39527.0,2.0
