, Score,cropDataLength,datasetName,seed,lengthStep,lengths,mdlAbandonCriterion,mdlBits,threshAlgo,f1_025,f1_05,intersectSz,iou,numMatches_025,numMatches_05,numReported_025,numReported_05,numTrue_025,numTrue_05,precision_025,precision_05,recall_025,recall_05,reportedFrac,reportedSize,std_iou,time,truthFrac,truthSize,unionSz
0,0.0,4000,randwalk,5,1,"[250 251 252 253 254 255 256 257 258 259 260 261 262 263 264 265 266 267
 268 269 270 271 272 273 274 275 276 277 278 279 280 281 282 283 284 285
 286 287 288 289 290 291 292 293 294 295 296 297 298 299]",allNegative,6,mdl,0.0,0.0,0.0,0.0,0,0,6,6,2,2,0.0,0.0,0.0,0.0,0.0,1572.0,0.0,2671.84564,0.0,1.0,1573.0
