, Score,cropDataLength,datasetName,seed,lengthStep,lengths,threshAlgo,f1_025,f1_05,intersectSz,iou,numMatches_025,numMatches_05,numReported_025,numReported_05,numTrue_025,numTrue_05,precision_025,precision_05,recall_025,recall_05,reportedFrac,reportedSize,std_iou,time,truthFrac,truthSize,unionSz
0,0.0,4000,randwalk,3,1,"[50 51 52 53 54 55 56 57 58 59 60 61 62 63 64 65 66 67 68 69 70 71 72 73 74
 75 76 77 78 79 80 81 82 83 84 85 86 87 88 89 90 91 92 93 94 95 96 97 98 99]",minnen,0.0,0.0,0.0,0.0,0,0,9,9,2,2,0.0,0.0,0.0,0.0,0.0,675.0,0.0,499.201419,0.0,1.0,676.0
