, Score,cropDataLength,datasetName,seed,lengthStep,lengths,mdlAbandonCriterion,mdlBits,threshAlgo,f1_025,f1_05,intersectSz,iou,numMatches_025,numMatches_05,numReported_025,numReported_05,numTrue_025,numTrue_05,precision_025,precision_05,recall_025,recall_05,reportedFrac,reportedSize,std_iou,time,truthFrac,truthSize,unionSz
0,0.0,4000,randwalk,8,1,"[400 401 402 403 404 405 406 407 408 409 410 411 412 413 414 415 416 417
 418 419 420 421 422 423 424 425 426 427 428 429 430 431 432 433 434 435
 436 437 438 439 440 441 442 443 444 445 446 447 448 449]",allNegative,6,mdl,0.0,0.0,0.0,0.0,0,0,3,3,2,2,0.0,0.0,0.0,0.0,0.0,1206.0,0.0,6369.091717,0.0,1.0,1207.0
