, Score,cropDataLength,datasetName,seed,lengthStep,lengths,threshAlgo,f1_025,f1_05,intersectSz,iou,numMatches_025,numMatches_05,numReported_025,numReported_05,numTrue_025,numTrue_05,precision_025,precision_05,recall_025,recall_05,reportedFrac,reportedSize,std_iou,time,truthFrac,truthSize,unionSz
0,0.0,4000,randwalk,10,1,"[120 121 122 123 124 125 126 127 128 129 130 131 132 133 134 135 136 137
 138 139 140 141 142 143 144 145 146 147 148 149 150 151 152 153 154 155
 156 157 158 159 160 161 162 163 164 165 166 167 168 169 170 171 172 173
 174 175 176 177 178 179]",minnen,0.0,0.0,0.0,0.0,0,0,5,5,2,2,0.0,0.0,0.0,0.0,0.0,600.0,0.0,309.411919,0.0,1.0,601.0
