, Score,fractionAdversarialDims,fractionNoiseDims,downsampleBy,ignorePositions,lengthStep,lengths,maxOverlapFraction,mdlAbandonCriterion,mdlBits,onlyReturnPair,saveMotifsDir,threshAlgo,datasetName,instancesPerTs,seed,whichExamples,f1,iou,precision,recall,time
0,0.0,0.0,0.0,5,False,5,"[0.04, 0.1]",0.5,allNegative,6,False,figs/official/dishwasher/mdl,mdl,dishwasher_groups,5,123,[0],0.0,0.005494505494505495,0.0,0.0,8.207958999999999
1,0.0,0.0,1.0,5,False,5,"[0.04, 0.1]",0.5,allNegative,6,False,figs/official/dishwasher/mdl,mdl,dishwasher_groups,5,123,[0],0.0,0.005494505494505495,0.0,0.0,7.612978000000002
