, Score,fractionAdversarialDims,fractionNoiseDims,downsampleBy,ignorePositions,lengthStep,lengths,maxOverlapFraction,mdlAbandonCriterion,mdlBits,onlyReturnPair,saveMotifsDir,threshAlgo,datasetName,instancesPerTs,seed,f1,iou,precision,recall,time
0,0.0,0.0,0.0,1,False,5,"[0.04, 0.1]",0.5,allNegative,6,False,figs/official/dishwasher/mdl,mdl,dishwasher_groups,5,123,0.0,0.03006657902548662,0.0,0.0,4713.569015
1,0.0,0.0,1.0,1,False,5,"[0.04, 0.1]",0.5,allNegative,6,False,figs/official/dishwasher/mdl,mdl,dishwasher_groups,5,123,0.0,0.06893401843242802,0.0,0.0,90703.67608100001
