, Score,cropDataLength,datasetName,lengthStep,lengths,threshAlgo,f1_025,f1_05,intersectSz,iou,numMatches_025,numMatches_05,numReported_025,numReported_05,numTrue_025,numTrue_05,precision_025,precision_05,recall_025,recall_05,reportedFrac,reportedSize,std_iou,time,truthFrac,truthSize,unionSz
0,0.0,2000,randwalk,1,[150],minnen,0.0,0.0,0.0,0.0,0,0,3,3,2,2,0.0,0.0,0.0,0.0,0.0,450.0,0.0,16.934314999999998,0.0,1.0,451.0
1,0.0,2000,randwalk,1,"[140 141 142 143 144 145 146 147 148 149 150 151 152 153 154 155 156 157
 158 159]",minnen,0.0,0.0,0.0,0.0,0,0,3,3,2,2,0.0,0.0,0.0,0.0,0.0,420.0,0.0,17.448974999999997,0.0,1.0,421.0
2,0.0,2000,randwalk,1,"[130 131 132 133 134 135 136 137 138 139 140 141 142 143 144 145 146 147
 148 149 150 151 152 153 154 155 156 157 158 159 160 161 162 163 164 165
 166 167 168 169]",minnen,0.0,0.0,0.0,0.0,0,0,4,4,2,2,0.0,0.0,0.0,0.0,0.0,520.0,0.0,33.306501,0.0,1.0,521.0
3,0.0,2000,randwalk,1,"[120 121 122 123 124 125 126 127 128 129 130 131 132 133 134 135 136 137
 138 139 140 141 142 143 144 145 146 147 148 149 150 151 152 153 154 155
 156 157 158 159 160 161 162 163 164 165 166 167 168 169 170 171 172 173
 174 175 176 177 178 179]",minnen,0.0,0.0,0.0,0.0,0,0,3,3,2,2,0.0,0.0,0.0,0.0,0.0,444.0,0.0,36.204342,0.0,1.0,445.0
4,0.0,2000,randwalk,1,"[110 111 112 113 114 115 116 117 118 119 120 121 122 123 124 125 126 127
 128 129 130 131 132 133 134 135 136 137 138 139 140 141 142 143 144 145
 146 147 148 149 150 151 152 153 154 155 156 157 158 159 160 161 162 163
 164 165 166 167 168 169 170 171 172 173 174 175 176 177 178 179 180 181
 182 183 184 185 186 187 188 189]",minnen,0.0,0.0,0.0,0.0,0,0,4,4,2,2,0.0,0.0,0.0,0.0,0.0,440.0,0.0,50.563997,0.0,1.0,441.0
5,0.0,2000,randwalk,1,"[100 101 102 103 104 105 106 107 108 109 110 111 112 113 114 115 116 117
 118 119 120 121 122 123 124 125 126 127 128 129 130 131 132 133 134 135
 136 137 138 139 140 141 142 143 144 145 146 147 148 149 150 151 152 153
 154 155 156 157 158 159 160 161 162 163 164 165 166 167 168 169 170 171
 172 173 174 175 176 177 178 179 180 181 182 183 184 185 186 187 188 189
 190 191 192 193 194 195 196 197 198 199]",minnen,0.0,0.0,0.0,0.0,0,0,4,4,2,2,0.0,0.0,0.0,0.0,0.0,400.0,0.0,70.50929,0.0,1.0,401.0
6,0.0,2000,randwalk,1,"[ 90  91  92  93  94  95  96  97  98  99 100 101 102 103 104 105 106 107
 108 109 110 111 112 113 114 115 116 117 118 119 120 121 122 123 124 125
 126 127 128 129 130 131 132 133 134 135 136 137 138 139 140 141 142 143
 144 145 146 147 148 149 150 151 152 153 154 155 156 157 158 159 160 161
 162 163 164 165 166 167 168 169 170 171 172 173 174 175 176 177 178 179
 180 181 182 183 184 185 186 187 188 189 190 191 192 193 194 195 196 197
 198 199 200 201 202 203 204 205 206 207 208 209]",minnen,0.0,0.0,0.0,0.0,0,0,5,5,2,2,0.0,0.0,0.0,0.0,0.0,450.0,0.0,69.55276900000004,0.0,1.0,451.0
7,0.0,2000,randwalk,1,"[ 80  81  82  83  84  85  86  87  88  89  90  91  92  93  94  95  96  97
  98  99 100 101 102 103 104 105 106 107 108 109 110 111 112 113 114 115
 116 117 118 119 120 121 122 123 124 125 126 127 128 129 130 131 132 133
 134 135 136 137 138 139 140 141 142 143 144 145 146 147 148 149 150 151
 152 153 154 155 156 157 158 159 160 161 162 163 164 165 166 167 168 169
 170 171 172 173 174 175 176 177 178 179 180 181 182 183 184 185 186 187
 188 189 190 191 192 193 194 195 196 197 198 199 200 201 202 203 204 205
 206 207 208 209 210 211 212 213 214 215 216 217 218 219]",minnen,0.0,0.0,0.0,0.0,0,0,4,4,2,2,0.0,0.0,0.0,0.0,0.0,600.0,0.0,81.158884,0.0,1.0,601.0
8,0.0,2000,randwalk,1,"[ 70  71  72  73  74  75  76  77  78  79  80  81  82  83  84  85  86  87
  88  89  90  91  92  93  94  95  96  97  98  99 100 101 102 103 104 105
 106 107 108 109 110 111 112 113 114 115 116 117 118 119 120 121 122 123
 124 125 126 127 128 129 130 131 132 133 134 135 136 137 138 139 140 141
 142 143 144 145 146 147 148 149 150 151 152 153 154 155 156 157 158 159
 160 161 162 163 164 165 166 167 168 169 170 171 172 173 174 175 176 177
 178 179 180 181 182 183 184 185 186 187 188 189 190 191 192 193 194 195
 196 197 198 199 200 201 202 203 204 205 206 207 208 209 210 211 212 213
 214 215 216 217 218 219 220 221 222 223 224 225 226 227 228 229]",minnen,0.0,0.0,0.0,0.0,0,0,6,6,2,2,0.0,0.0,0.0,0.0,0.0,420.0,0.0,97.54932600000001,0.0,1.0,421.0
9,0.0,2000,randwalk,1,"[ 60  61  62  63  64  65  66  67  68  69  70  71  72  73  74  75  76  77
  78  79  80  81  82  83  84  85  86  87  88  89  90  91  92  93  94  95
  96  97  98  99 100 101 102 103 104 105 106 107 108 109 110 111 112 113
 114 115 116 117 118 119 120 121 122 123 124 125 126 127 128 129 130 131
 132 133 134 135 136 137 138 139 140 141 142 143 144 145 146 147 148 149
 150 151 152 153 154 155 156 157 158 159 160 161 162 163 164 165 166 167
 168 169 170 171 172 173 174 175 176 177 178 179 180 181 182 183 184 185
 186 187 188 189 190 191 192 193 194 195 196 197 198 199 200 201 202 203
 204 205 206 207 208 209 210 211 212 213 214 215 216 217 218 219 220 221
 222 223 224 225 226 227 228 229 230 231 232 233 234 235 236 237 238 239]",minnen,0.0,0.0,0.0,0.0,0,0,5,5,2,2,0.0,0.0,0.0,0.0,0.0,365.0,0.0,105.75096899999994,0.0,1.0,366.0
10,0.0,2000,randwalk,1,"[ 50  51  52  53  54  55  56  57  58  59  60  61  62  63  64  65  66  67
  68  69  70  71  72  73  74  75  76  77  78  79  80  81  82  83  84  85
  86  87  88  89  90  91  92  93  94  95  96  97  98  99 100 101 102 103
 104 105 106 107 108 109 110 111 112 113 114 115 116 117 118 119 120 121
 122 123 124 125 126 127 128 129 130 131 132 133 134 135 136 137 138 139
 140 141 142 143 144 145 146 147 148 149 150 151 152 153 154 155 156 157
 158 159 160 161 162 163 164 165 166 167 168 169 170 171 172 173 174 175
 176 177 178 179 180 181 182 183 184 185 186 187 188 189 190 191 192 193
 194 195 196 197 198 199 200 201 202 203 204 205 206 207 208 209 210 211
 212 213 214 215 216 217 218 219 220 221 222 223 224 225 226 227 228 229
 230 231 232 233 234 235 236 237 238 239 240 241 242 243 244 245 246 247
 248 249]",minnen,0.0,0.0,0.0,0.0,0,0,7,7,2,2,0.0,0.0,0.0,0.0,0.0,350.0,0.0,105.20778900000005,0.0,1.0,351.0
