, Score,cropDataLength,datasetName,seed,lengthStep,lengths,mdlAbandonCriterion,mdlBits,threshAlgo,f1_025,f1_05,intersectSz,iou,numMatches_025,numMatches_05,numReported_025,numReported_05,numTrue_025,numTrue_05,precision_025,precision_05,recall_025,recall_05,reportedFrac,reportedSize,std_iou,time,truthFrac,truthSize,unionSz
0,0.0,4000,randwalk,9,1,"[300 301 302 303 304 305 306 307 308 309 310 311 312 313 314 315 316 317
 318 319 320 321 322 323 324 325 326 327 328 329 330 331 332 333 334 335
 336 337 338 339 340 341 342 343 344 345 346 347 348 349]",allNegative,6,mdl,0.0,0.0,0.0,0.0,0,0,5,5,2,2,0.0,0.0,0.0,0.0,0.0,1535.0,0.0,7096.62529,0.0,1.0,1536.0
