, Score,cropDataLength,datasetName,seed,Lmax,Lmin,detrend,ignoreFlat,includeLocalSlope,f1_025,f1_05,intersectSz,iou,numMatches_025,numMatches_05,numReported_025,numReported_05,numTrue_025,numTrue_05,precision_025,precision_05,recall_025,recall_05,reportedFrac,reportedSize,std_iou,time,truthFrac,truthSize,unionSz,iter
0,0.0,500,randwalk,3,149,100,True,True,True,0.0,0.0,1.0,0.005,0,0,2,2,2,2,0.0,0.0,0.0,0.0,0.005,200.0,0.0,5.5717620000000005,1.0,1.0,200.0,3.0
1,0.0,1000,randwalk,3,149,100,True,True,True,0.0,0.0,0.0,0.0,0,0,2,2,2,2,0.0,0.0,0.0,0.0,0.0,200.0,0.0,4.419626000000001,0.0,1.0,201.0,3.0
