\relax 
\providecommand\zref@newlabel[2]{}
\citation{bsnSubdim}
\citation{minnenAffixHMMs}
\citation{keoghInsect}
\citation{nuactiv,dataDicts,ushapelets,fastUshapelets}
\citation{nuactiv}
\citation{msrc12}
\citation{ushapelets}
\citation{msrc12,ushapelets,dataDicts,minnenSubdim,nuactiv}
\citation{plmd}
\citation{plmd}
\citation{plmd}
\@writefile{toc}{\contentsline {section}{\numberline {I}Introduction}{1}}
\newlabel{sec:intro}{{I}{1}}
\@writefile{lof}{\contentsline {figure}{\numberline {1}{\ignorespaces \textit  {a}) True instances of the dishwasher running (shaded). \textit  {b}) Even when told the length and number of event instances, the recent algorithm of \cite  {plmd} returns intervals with only the beginning of the event. \textit  {c}) Our algorithm returns accurate intervals with no such prior knowledge.\relax }}{1}}
\providecommand*\caption@xref[2]{\@setref\relax\@undefined{#1}}
\newlabel{fig:fig1}{{1}{1}}
\citation{shapelets}
\citation{plmd,moen}
\citation{plmd}
\citation{ampds}
\citation{extractWebsite}
\citation{rareMotif}
\@writefile{toc}{\contentsline {section}{\numberline {II}Definitions and Problem}{2}}
\newlabel{sec:problem}{{II}{2}}
\@writefile{toc}{\contentsline {subsection}{\numberline {\unhbox \voidb@x \hbox {II-A}}Problem Statement}{2}}
\newlabel{eq:concreteObjective}{{1}{2}}
\@writefile{toc}{\contentsline {subsection}{\numberline {\unhbox \voidb@x \hbox {II-B}}Assumptions}{2}}
\@writefile{toc}{\contentsline {subsection}{\numberline {\unhbox \voidb@x \hbox {II-C}}Why the Task is Difficult}{2}}
\citation{ushapelets}
\citation{fastUshapelets}
\citation{shapelets}
\citation{dataDicts}
\citation{unsupervisedMusicBoundaries}
\citation{crossmatch}
\citation{keoghDotPlots}
\citation{keoghUSMotifs}
\citation{minnenAffixHMMs,minnenSubdim,moen,plmd}
\citation{plmd}
\citation{ratanaFindAllCrap}
\citation{epenthesis}
\citation{moen}
\citation{minnenSubdim}
\citation{epenthesis}
\citation{minnenSubdim}
\citation{plmd}
\citation{moen}
\citation{epenthesis}
\citation{moen,plmd,ratanaFindAllCrap}
\@writefile{toc}{\contentsline {section}{\numberline {III}Related Work}{3}}
\newlabel{sec:relatedWork}{{III}{3}}
\@writefile{toc}{\contentsline {section}{\numberline {IV}Method Overview}{3}}
\newlabel{sec:intuition}{{IV}{3}}
\@writefile{loa}{\contentsline {algorithm}{\numberline {1}{\ignorespaces EXTRACT\relax }}{3}}
\newlabel{algo:extract}{{1}{3}}
\@writefile{toc}{\contentsline {subsection}{\numberline {\unhbox \voidb@x \hbox {IV-A}}Unknown Instance Lengths}{3}}
\citation{mk}
\citation{keoghUSMotifs}
\@writefile{lof}{\contentsline {figure}{\numberline {2}{\ignorespaces a) A time series containing two event instances. b) Including extra data yields large distances (grey lines) between the windows $i$ and $j$ around the event instances. c) Comparing based on subsequences within these windows allows close matches between the pieces of the sine waves.\relax }}{4}}
\newlabel{fig:lengthsProblem}{{2}{4}}
\@writefile{lof}{\contentsline {figure}{\numberline {3}{\ignorespaces Feature matrix. Each row is the presence of a particular shape, and each column is a particular time (shown at reduced granularity). Similar regions of data contain the same shapes in roughly the same temporal arrangement.\relax }}{4}}
\newlabel{fig:basicTransform}{{3}{4}}
\@writefile{lof}{\contentsline {figure}{\numberline {4}{\ignorespaces Because the values in the feature matrix are independent of the window length, a window longer than the event can be used to search for instances.\relax }}{4}}
\newlabel{fig:windowTooLong}{{4}{4}}
\@writefile{toc}{\contentsline {subsection}{\numberline {\unhbox \voidb@x \hbox {IV-B}}Dealing with Irrelevant Features}{4}}
\@writefile{lof}{\contentsline {figure}{\numberline {5}{\ignorespaces Blurring the feature matrix. Despite the second sine wave being longer and warped in time, the two windows still appear similar when blurred.\relax }}{5}}
\newlabel{fig:blur}{{5}{5}}
\@writefile{toc}{\contentsline {subsection}{\numberline {\unhbox \voidb@x \hbox {IV-C}}Multiple Dimensions}{5}}
\@writefile{lof}{\contentsline {figure}{\numberline {6}{\ignorespaces Most irrelevant features are ignored after only two or three examples, since it is unlikely for them to repeatedly be in the same place in the window. A few ``false positives'' may remain.\relax }}{5}}
\newlabel{fig:irrelevantFeatures}{{6}{5}}
\@writefile{toc}{\contentsline {subsection}{\numberline {\unhbox \voidb@x \hbox {IV-D}}Finding Instances}{5}}
\newlabel{sec:basicAlgo}{{\unhbox \voidb@x \hbox {IV-D}}{5}}
\@writefile{loa}{\contentsline {algorithm}{\numberline {2}{\ignorespaces $FindInstances(\mathcal  {S}, \mathcal  {X})$ \relax }}{5}}
\newlabel{algo:findInstancesShort}{{2}{5}}
\@writefile{toc}{\contentsline {section}{\numberline {V}Method Details}{5}}
\newlabel{sec:method}{{V}{5}}
\citation{rareMotif,plmd}
\citation{moen,plmd,ratanaFindAllCrap}
\citation{extractWebsite}
\@writefile{toc}{\contentsline {subsection}{\numberline {\unhbox \voidb@x \hbox {V-A}}Structure Scores}{6}}
\@writefile{toc}{\contentsline {subsection}{\numberline {\unhbox \voidb@x \hbox {V-B}}Constructing the Feature Matrix}{6}}
\newlabel{sec:featureMat}{{\unhbox \voidb@x \hbox {V-B}}{6}}
\@writefile{toc}{\contentsline {subsection}{\numberline {\unhbox \voidb@x \hbox {V-C}}Generating Seed Windows}{6}}
\@writefile{toc}{\contentsline {subsection}{\numberline {\unhbox \voidb@x \hbox {V-D}}Scoring Sets of Windows}{6}}
\newlabel{sec:scoring}{{\unhbox \voidb@x \hbox {V-D}}{6}}
\citation{extractWebsite}
\citation{extractWebsite}
\citation{moen,plmd}
\citation{scipy}
\citation{numba}
\citation{extractWebsite}
\citation{extractWebsite}
\citation{msrc12}
\citation{tidigits}
\citation{minnenSubseqDensity}
\citation{librosa}
\@writefile{loa}{\contentsline {algorithm}{\numberline {3}{\ignorespaces computeScore($\mathcal  {I}, nextIdx$)\relax }}{7}}
\newlabel{algo:computeScore}{{3}{7}}
\@writefile{toc}{\contentsline {subsection}{\numberline {\unhbox \voidb@x \hbox {V-E}}Recovering Instance Bounds}{7}}
\newlabel{sec:instanceBounds}{{\unhbox \voidb@x \hbox {V-E}}{7}}
\@writefile{toc}{\contentsline {subsection}{\numberline {\unhbox \voidb@x \hbox {V-F}}Runtime Complexity}{7}}
\newlabel{sec:complexity}{{\unhbox \voidb@x \hbox {V-F}}{7}}
\@writefile{toc}{\contentsline {section}{\numberline {VI}Results}{7}}
\newlabel{sec:results}{{VI}{7}}
\@writefile{toc}{\contentsline {subsection}{\numberline {\unhbox \voidb@x \hbox {VI-A}}Datasets}{7}}
\@writefile{lof}{\contentsline {figure}{\numberline {7}{\ignorespaces Example time series from each of the datasets used.\relax }}{7}}
\newlabel{fig:datasets}{{7}{7}}
\newlabel{sec:msrc}{{\unhbox \voidb@x \hbox {VI-A}1}{7}}
\@writefile{toc}{\contentsline {subsubsection}{\numberline {\unhbox \voidb@x \hbox {VI-A}1}MSRC-12}{7}}
\@writefile{toc}{\contentsline {subsubsection}{\numberline {\unhbox \voidb@x \hbox {VI-A}2}TIDIGITS}{7}}
\citation{ampds}
\citation{extractWebsite}
\citation{plmd}
\citation{plmd}
\citation{ucrTimeSeries}
\citation{moen,minnenSubdim}
\citation{mk}
\citation{moen}
\citation{minnenNeighborhood}
\citation{plmd}
\citation{epenthesis}
\citation{plmd}
\@writefile{toc}{\contentsline {subsubsection}{\numberline {\unhbox \voidb@x \hbox {VI-A}3}Dishwasher}{8}}
\@writefile{toc}{\contentsline {subsubsection}{\numberline {\unhbox \voidb@x \hbox {VI-A}4}UCR}{8}}
\@writefile{toc}{\contentsline {subsection}{\numberline {\unhbox \voidb@x \hbox {VI-B}}Evaluation Measures}{8}}
\@writefile{toc}{\contentsline {subsection}{\numberline {\unhbox \voidb@x \hbox {VI-C}}Comparison Algorithms}{8}}
\@writefile{toc}{\contentsline {subsection}{\numberline {\unhbox \voidb@x \hbox {VI-D}}Instance Discovery Accuracy}{8}}
\@writefile{lof}{\contentsline {figure}{\numberline {8}{\ignorespaces The proposed algorithm is more accurate for virtually all ``match'' thresholds on all datasets. Shading corresponds to 95\% confidence intervals.\relax }}{9}}
\newlabel{fig:accuracy}{{8}{9}}
\newlabel{tbl:f1}{{\caption@xref {tbl:f1}{ on input line 121}}{9}}
\@writefile{toc}{\contentsline {subsection}{\numberline {\unhbox \voidb@x \hbox {VI-E}}Speed}{9}}
\@writefile{lof}{\contentsline {figure}{\numberline {9}{\ignorespaces \textit  {Top}) Original time series, with instances inferred by EXTRACT in gray. \textit  {Bottom}) The feature matrix $\Phi $. \textit  {Right}) The learned feature weights. These resemble a ``blurred'' version of the features that occur when the word is spoken.\relax }}{9}}
\newlabel{fig:algoOutput}{{9}{9}}
\@writefile{lof}{\contentsline {figure}{\numberline {10}{\ignorespaces The proposed algorithm is one to two orders of magnitude faster than comparisons.\relax }}{9}}
\newlabel{fig:scalability}{{10}{9}}
\citation{moen}
\bibstyle{IEEEtran}
\bibdata{doc}
\bibcite{bsnSubdim}{1}
\bibcite{minnenAffixHMMs}{2}
\bibcite{keoghInsect}{3}
\bibcite{nuactiv}{4}
\bibcite{dataDicts}{5}
\bibcite{ushapelets}{6}
\bibcite{fastUshapelets}{7}
\bibcite{msrc12}{8}
\bibcite{minnenSubdim}{9}
\bibcite{plmd}{10}
\bibcite{shapelets}{11}
\bibcite{moen}{12}
\bibcite{ampds}{13}
\bibcite{extractWebsite}{14}
\bibcite{rareMotif}{15}
\bibcite{unsupervisedMusicBoundaries}{16}
\bibcite{crossmatch}{17}
\bibcite{keoghDotPlots}{18}
\bibcite{ratanaFindAllCrap}{19}
\bibcite{epenthesis}{20}
\bibcite{mk}{21}
\bibcite{keoghUSMotifs}{22}
\bibcite{scipy}{23}
\bibcite{numba}{24}
\bibcite{tidigits}{25}
\bibcite{minnenSubseqDensity}{26}
\bibcite{librosa}{27}
\bibcite{ucrTimeSeries}{28}
\bibcite{minnenNeighborhood}{29}
\@writefile{toc}{\contentsline {section}{\numberline {VII}Discussion and Conclusion}{10}}
\newlabel{sec:conclusion}{{VII}{10}}
\@writefile{toc}{\contentsline {section}{\numberline {VIII}Acknowledgements}{10}}
\@writefile{toc}{\contentsline {section}{References}{10}}
