, Score,cropDataLength,datasetName,seed,lengthStep,lengths,mdlAbandonCriterion,mdlBits,threshAlgo,f1_025,f1_05,intersectSz,iou,numMatches_025,numMatches_05,numReported_025,numReported_05,numTrue_025,numTrue_05,precision_025,precision_05,recall_025,recall_05,reportedFrac,reportedSize,std_iou,time,truthFrac,truthSize,unionSz
0,0.0,4000,randwalk,4,1,"[450 451 452 453 454 455 456 457 458 459 460 461 462 463 464 465 466 467
 468 469 470 471 472 473 474 475 476 477 478 479 480 481 482 483 484 485
 486 487 488 489 490 491 492 493 494 495 496 497 498 499]",allNegative,6,mdl,0.0,0.0,0.0,0.0,0,0,4,4,2,2,0.0,0.0,0.0,0.0,0.0,1896.0,0.0,6026.86978,0.0,1.0,1897.0
